1. Summary
Meeting title	Python Training [week 6] - [week 13]
Attended participants	20
Start time	11/14/22, 4:54:26 PM
End time	11/14/22, 6:42:51 PM
Meeting duration	1h 48m 25s
Average attendance time	1h 35m 14s

2. Participants
Name	First join	Last leave	In-meeting duration	Email	Participant ID (UPN)	Role
Andre Arroyo Hinojosa	11/14/22, 4:54:29 PM	11/14/22, 6:42:38 PM	1h 48m 8s	Andre.Arroyo@jala.university	Andre.Arroyo@jala.university	Presenter
Miguel Pozo Morales	11/14/22, 4:54:45 PM	11/14/22, 6:42:37 PM	1h 47m 52s	Miguel.Pozo@jala.university	Miguel.Pozo@jala.university	Presenter
Kevin Butvilofsky	11/14/22, 4:56:16 PM	11/14/22, 6:42:36 PM	1h 46m 19s	Kevin.Butvilofsky@jala.university	Kevin.Butvilofsky@jala.university	Presenter
Miguel Paricahua Lopez	11/14/22, 4:56:16 PM	11/14/22, 6:42:38 PM	1h 46m 22s	Miguel.Paricahua@jala.university	Miguel.Paricahua@jala.university	Presenter
Rodrigo Morales Rivas	11/14/22, 4:56:33 PM	11/14/22, 6:42:39 PM	1h 46m 5s	Rodrigo.Morales@jala.university	Rodrigo.Morales@jala.university	Presenter
Renan Boaventura	11/14/22, 4:56:55 PM	11/14/22, 6:42:51 PM	1h 45m 55s	Renan.Boaventura@jala.university	Renan.Boaventura@jala.university	Presenter
Dayana Hernandez Aquize	11/14/22, 4:57:38 PM	11/14/22, 6:42:42 PM	1h 45m 3s	Dayana.Hernandez@jala.university	Dayana.Hernandez@jala.university	Presenter
Diego Quisbert Gutierrez	11/14/22, 4:58:45 PM	11/14/22, 6:42:36 PM	1h 43m 51s	Diego.Quisbert@jala.university	Diego.Quisbert@jala.university	Presenter
Miguel Gemio Quispe	11/14/22, 4:59:15 PM	11/14/22, 6:36:50 PM	1h 37m 34s	Miguel.Gemio@jala.university	Miguel.Gemio@jala.university	Presenter
Maria Marquina Guevara	11/14/22, 4:59:24 PM	11/14/22, 6:42:35 PM	1h 43m 11s	Maria.Marquina@jala.university	Maria.Marquina@jala.university	Organizer
Israel Zurita Sanchez	11/14/22, 4:59:40 PM	11/14/22, 6:42:27 PM	1h 38m 50s	Israel.Zurita@jala.university	Israel.Zurita@jala.university	Presenter
Alejandra Maldonado	11/14/22, 5:00:15 PM	11/14/22, 6:42:45 PM	1h 42m 29s	Alejandra.Maldonado@jala.university	Alejandra.Maldonado@jala.university	Presenter
Diego Alarcon Inturias	11/14/22, 5:00:28 PM	11/14/22, 6:42:49 PM	1h 28m 56s	Diego.Alarcon@jala.university	Diego.Alarcon@jala.university	Presenter
Nelson Delgado Colque	11/14/22, 5:00:29 PM	11/14/22, 6:37:32 PM	1h 26m 3s	Nelson.Delgado@jala.university	Nelson.Delgado@jala.university	Presenter
Ivan Gonzalez de la Torre	11/14/22, 5:00:45 PM	11/14/22, 6:42:47 PM	1h 42m 1s	Ivan.Gonzalez@jala.university	Ivan.Gonzalez@jala.university	Presenter
Sebastian Arbelaez Meneses	11/14/22, 5:01:04 PM	11/14/22, 6:30:42 PM	1h 29m 37s	Sebastian.Arbelaez@jala.university	Sebastian.Arbelaez@jala.university	Presenter
Brayan Vasquez Rojas	11/14/22, 5:02:04 PM	11/14/22, 6:42:40 PM	1h 40m 36s	Brayan.Vasquez@jala.university	Brayan.Vasquez@jala.university	Presenter
Alex Perez Castillo	11/14/22, 5:02:08 PM	11/14/22, 6:42:41 PM	1h 40m 32s	Alex.Perez@jala.university	Alex.Perez@jala.university	Presenter
Vanessa Tejerina Flores	11/14/22, 5:18:39 PM	11/14/22, 6:42:38 PM	1h 23m 58s	Vanessa.Tejerina@jala.university	Vanessa.Tejerina@jala.university	Presenter
Jose Mendoza Antonio	11/14/22, 6:34:47 PM	11/14/22, 6:42:45 PM	1m 22s	Jose.Mendoza@jala.university	Jose.Mendoza@jala.university	Presenter

3. In-Meeting activities
Name	Join time	Leave time	Duration	Email	Role
Andre Arroyo Hinojosa	11/14/22, 4:54:29 PM	11/14/22, 6:42:38 PM	1h 48m 8s	Andre.Arroyo@jala.university	Presenter
Miguel Pozo Morales	11/14/22, 4:54:45 PM	11/14/22, 6:42:37 PM	1h 47m 52s	Miguel.Pozo@jala.university	Presenter
Kevin Butvilofsky	11/14/22, 4:56:16 PM	11/14/22, 6:42:36 PM	1h 46m 19s	Kevin.Butvilofsky@jala.university	Presenter
Miguel Paricahua Lopez	11/14/22, 4:56:16 PM	11/14/22, 6:42:38 PM	1h 46m 22s	Miguel.Paricahua@jala.university	Presenter
Rodrigo Morales Rivas	11/14/22, 4:56:33 PM	11/14/22, 6:42:39 PM	1h 46m 5s	Rodrigo.Morales@jala.university	Presenter
Renan Boaventura	11/14/22, 4:56:55 PM	11/14/22, 6:42:51 PM	1h 45m 55s	Renan.Boaventura@jala.university	Presenter
Dayana Hernandez Aquize	11/14/22, 4:57:38 PM	11/14/22, 6:42:42 PM	1h 45m 3s	Dayana.Hernandez@jala.university	Presenter
Diego Quisbert Gutierrez	11/14/22, 4:58:45 PM	11/14/22, 6:42:36 PM	1h 43m 51s	Diego.Quisbert@jala.university	Presenter
Miguel Gemio Quispe	11/14/22, 4:59:15 PM	11/14/22, 6:36:50 PM	1h 37m 34s	Miguel.Gemio@jala.university	Presenter
Maria Marquina Guevara	11/14/22, 4:59:24 PM	11/14/22, 6:42:35 PM	1h 43m 11s	Maria.Marquina@jala.university	Organizer
Israel Zurita Sanchez	11/14/22, 4:59:40 PM	11/14/22, 6:37:04 PM	1h 37m 24s	Israel.Zurita@jala.university	Presenter
Israel Zurita Sanchez	11/14/22, 6:41:00 PM	11/14/22, 6:42:27 PM	1m 26s	Israel.Zurita@jala.university	Presenter
Alejandra Maldonado	11/14/22, 5:00:15 PM	11/14/22, 6:42:45 PM	1h 42m 29s	Alejandra.Maldonado@jala.university	Presenter
Diego Alarcon Inturias	11/14/22, 5:00:28 PM	11/14/22, 5:32:14 PM	31m 45s	Diego.Alarcon@jala.university	Presenter
Diego Alarcon Inturias	11/14/22, 5:45:38 PM	11/14/22, 6:42:49 PM	57m 11s	Diego.Alarcon@jala.university	Presenter
Nelson Delgado Colque	11/14/22, 5:00:29 PM	11/14/22, 6:01:43 PM	1h 1m 14s	Nelson.Delgado@jala.university	Presenter
Nelson Delgado Colque	11/14/22, 6:12:42 PM	11/14/22, 6:37:32 PM	24m 49s	Nelson.Delgado@jala.university	Presenter
Ivan Gonzalez de la Torre	11/14/22, 5:00:45 PM	11/14/22, 6:42:47 PM	1h 42m 1s	Ivan.Gonzalez@jala.university	Presenter
Sebastian Arbelaez Meneses	11/14/22, 5:01:04 PM	11/14/22, 6:30:42 PM	1h 29m 37s	Sebastian.Arbelaez@jala.university	Presenter
Brayan Vasquez Rojas	11/14/22, 5:02:04 PM	11/14/22, 6:42:40 PM	1h 40m 36s	Brayan.Vasquez@jala.university	Presenter
Alex Perez Castillo	11/14/22, 5:02:08 PM	11/14/22, 6:42:41 PM	1h 40m 32s	Alex.Perez@jala.university	Presenter
Vanessa Tejerina Flores	11/14/22, 5:18:39 PM	11/14/22, 6:42:38 PM	1h 23m 58s	Vanessa.Tejerina@jala.university	Presenter
Jose Mendoza Antonio	11/14/22, 6:34:47 PM	11/14/22, 6:35:37 PM	49s	Jose.Mendoza@jala.university	Presenter
Jose Mendoza Antonio	11/14/22, 6:42:11 PM	11/14/22, 6:42:45 PM	33s	Jose.Mendoza@jala.university	Presenter
